﻿Log file open, 10/02/18 09:41:32
LogWindows: Failed to load 'aqProf.dll' (GetLastError=126)
LogWindows: File 'aqProf.dll' does not exist
LogWindows: Failed to load 'VSPerf140.dll' (GetLastError=126)
LogWindows: File 'VSPerf140.dll' does not exist
LogWindows: Failed to load 'VtuneApi.dll' (GetLastError=126)
LogWindows: File 'VtuneApi.dll' does not exist
LogWindows: Failed to load 'VtuneApi32e.dll' (GetLastError=126)
LogWindows: File 'VtuneApi32e.dll' does not exist
LogInit: Display: Running engine for game: TowerDefenceProto
LogPlatformFile: Not using cached read wrapper
LogTaskGraph: Started task graph with 5 named threads and 23 total threads with 3 sets of task threads.
LogStats: Stats thread started at 0.919574
LogD3D11RHI: Loaded GFSDK_Aftermath_Lib.x64.dll
LogICUInternationalization: Display: ICU TimeZone Detection - Raw Offset: +0:00, Platform Override: ''
LogPluginManager: Mounting plugin Paper2D
LogPluginManager: Mounting plugin AISupport
LogPluginManager: Mounting plugin LightPropagationVolume
LogPluginManager: Mounting plugin CLionSourceCodeAccess
LogPluginManager: Mounting plugin CodeLiteSourceCodeAccess
LogPluginManager: Mounting plugin GitSourceControl
LogPluginManager: Mounting plugin KDevelopSourceCodeAccess
LogPluginManager: Mounting plugin NullSourceCodeAccess
LogPluginManager: Mounting plugin PerforceSourceControl
LogPluginManager: Mounting plugin SubversionSourceControl
LogPluginManager: Mounting plugin UObjectPlugin
LogPluginManager: Mounting plugin VisualStudioCodeSourceCodeAccess
LogPluginManager: Mounting plugin VisualStudioSourceCodeAccess
LogPluginManager: Mounting plugin XCodeSourceCodeAccess
LogPluginManager: Mounting plugin AssetManagerEditor
LogPluginManager: Mounting plugin CryptoKeys
LogPluginManager: Mounting plugin DataValidation
LogPluginManager: Mounting plugin FacialAnimation
LogPluginManager: Mounting plugin GameplayTagsEditor
LogPluginManager: Mounting plugin MacGraphicsSwitching
LogPluginManager: Mounting plugin MeshEditor
LogPluginManager: Mounting plugin MobileLauncherProfileWizard
LogPluginManager: Mounting plugin PluginBrowser
LogPluginManager: Mounting plugin SpeedTreeImporter
LogPluginManager: Mounting plugin DatasmithContent
LogPluginManager: Mounting plugin AlembicImporter
LogPluginManager: Mounting plugin AppleImageUtils
LogPluginManager: Mounting plugin AppleVision
LogPluginManager: Mounting plugin BackChannel
LogPluginManager: Mounting plugin CharacterAI
LogPluginManager: Mounting plugin GeometryCache
LogPluginManager: Mounting plugin HTML5Networking
LogPluginManager: Mounting plugin ProxyLODPlugin
LogPluginManager: Mounting plugin MagicLeap
LogPluginManager: Mounting plugin MagicLeapEmulator
LogPluginManager: Mounting plugin MagicLeapMedia
LogPluginManager: Mounting plugin AndroidMedia
LogPluginManager: Mounting plugin AvfMedia
LogPluginManager: Mounting plugin ImgMedia
LogPluginManager: Mounting plugin LinearTimecode
LogPluginManager: Mounting plugin MediaCompositing
LogPluginManager: Mounting plugin MediaPlayerEditor
LogPluginManager: Mounting plugin WmfMedia
LogPluginManager: Mounting plugin TcpMessaging
LogPluginManager: Mounting plugin UdpMessaging
LogPluginManager: Mounting plugin ActorSequence
LogPluginManager: Mounting plugin LevelSequenceEditor
LogPluginManager: Mounting plugin MatineeToLevelSequence
LogPluginManager: Mounting plugin NetcodeUnitTest
LogPluginManager: Mounting plugin NUTUnrealEngine4
LogPluginManager: Mounting plugin OnlineSubsystemGooglePlay
LogPluginManager: Mounting plugin OnlineSubsystemIOS
LogPluginManager: Mounting plugin OnlineSubsystem
LogPluginManager: Mounting plugin OnlineSubsystemNull
LogPluginManager: Mounting plugin OnlineSubsystemUtils
LogPluginManager: Mounting plugin LauncherChunkInstaller
LogPluginManager: Mounting plugin AndroidDeviceProfileSelector
LogPluginManager: Mounting plugin AndroidMoviePlayer
LogPluginManager: Mounting plugin AndroidPermission
LogPluginManager: Mounting plugin AppleMoviePlayer
LogPluginManager: Mounting plugin ArchVisCharacter
LogPluginManager: Mounting plugin AudioCapture
LogPluginManager: Mounting plugin CableComponent
LogPluginManager: Mounting plugin CustomMeshComponent
LogPluginManager: Mounting plugin EditableMesh
LogPluginManager: Mounting plugin ExampleDeviceProfileSelector
LogPluginManager: Mounting plugin GoogleCloudMessaging
LogPluginManager: Mounting plugin ImmediatePhysics
LogPluginManager: Mounting plugin IOSDeviceProfileSelector
LogPluginManager: Mounting plugin LinuxDeviceProfileSelector
LogPluginManager: Mounting plugin LocationServicesBPLibrary
LogPluginManager: Mounting plugin MobilePatchingUtils
LogPluginManager: Mounting plugin OculusVR
LogPluginManager: Plugin shader directory ../../../Engine/Plugins/Runtime/Oculus/OculusVR/Shaders found
LogPluginManager: Mapping shader source directory ../../../Engine/Plugins/Runtime/Oculus/OculusVR/Shaders to virtual directory /Plugin/OculusVR
LogPluginManager: Mounting plugin PhysXVehicles
LogPluginManager: Mounting plugin ProceduralMeshComponent
LogPluginManager: Mounting plugin RuntimePhysXCooking
LogPluginManager: Mounting plugin SteamVR
LogPluginManager: Mounting plugin WindowsMoviePlayer
LogStreaming: Display: Took  0.279s to configure plugins.
LogInit: Using libcurl 7.55.1-DEV
LogInit:  - built for x86_64-pc-win32
LogInit:  - supports SSL with OpenSSL/1.0.2h
LogInit:  - supports HTTP deflate (compression) using libz 1.2.8
LogInit:  - other features:
LogInit:      CURL_VERSION_SSL
LogInit:      CURL_VERSION_LIBZ
LogInit:      CURL_VERSION_IPV6
LogInit:      CURL_VERSION_ASYNCHDNS
LogInit:      CURL_VERSION_LARGEFILE
LogInit:      CURL_VERSION_IDN
LogInit:  CurlRequestOptions (configurable via config and command line):
LogInit:  - bVerifyPeer = false  - Libcurl will NOT verify peer certificate
LogInit:  - bUseHttpProxy = false  - Libcurl will NOT use HTTP proxy
LogInit:  - bDontReuseConnections = false  - Libcurl will reuse connections
LogInit:  - CertBundlePath = nullptr  - Libcurl will use whatever was configured at build time.
LogInit:  - MaxHostConnections = 16  - Libcurl will limit the number of connections to a host
LogInit:  - LocalHostAddr = Default
LogInit:  - BufferSize = 65536
LogInit: WinSock: version 1.1 (2.2), MaxSocks=32767, MaxUdp=65467
LogInit: Build: ++UE4+Release-4.20-CL-4369336
LogInit: Engine Version: 4.20.3-4369336+++UE4+Release-4.20
LogInit: Compatible Engine Version: 4.20.0-4212847+++UE4+Release-4.20
LogInit: Net CL: 4212847
LogInit: OS: Windows 10 (), CPU: Intel(R) Core(TM) i5-8300H CPU @ 2.30GHz, GPU: Intel(R) UHD Graphics 630
LogInit: Compiled (64-bit): Sep 17 2018 12:26:19
LogInit: Compiled with Visual C++: 19.13.26129.00
LogInit: Build Configuration: Development
LogInit: Branch Name: ++UE4+Release-4.20
LogInit: Command Line:  
LogInit: Base Directory: C:/Program Files/Epic Games/UE_4.20/Engine/Binaries/Win64/
LogInit: Installed Engine Build: 1
LogDevObjectVersion: Number of dev versions registered: 20
LogDevObjectVersion:   Dev-Blueprints (B0D832E4-1F89-4F0D-ACCF-7EB736FD4AA2): 10
LogDevObjectVersion:   Dev-Build (E1C64328-A22C-4D53-A36C-8E866417BD8C): 0
LogDevObjectVersion:   Dev-Core (375EC13C-06E4-48FB-B500-84F0262A717E): 2
LogDevObjectVersion:   Dev-Editor (E4B068ED-F494-42E9-A231-DA0B2E46BB41): 24
LogDevObjectVersion:   Dev-Framework (CFFC743F-43B0-4480-9391-14DF171D2073): 34
LogDevObjectVersion:   Dev-Mobile (B02B49B5-BB20-44E9-A304-32B752E40360): 2
LogDevObjectVersion:   Dev-Networking (A4E4105C-59A1-49B5-A7C5-40C4547EDFEE): 0
LogDevObjectVersion:   Dev-Online (39C831C9-5AE6-47DC-9A44-9C173E1C8E7C): 0
LogDevObjectVersion:   Dev-Physics (78F01B33-EBEA-4F98-B9B4-84EACCB95AA2): 0
LogDevObjectVersion:   Dev-Platform (6631380F-2D4D-43E0-8009-CF276956A95A): 0
LogDevObjectVersion:   Dev-Rendering (12F88B9F-8875-4AFC-A67C-D90C383ABD29): 26
LogDevObjectVersion:   Dev-Sequencer (7B5AE74C-D270-4C10-A958-57980B212A5A): 9
LogDevObjectVersion:   Dev-VR (D7296918-1DD6-4BDD-9DE2-64A83CC13884): 2
LogDevObjectVersion:   Dev-LoadTimes (C2A15278-BFE7-4AFE-6C17-90FF531DF755): 1
LogDevObjectVersion:   Private-Geometry (6EACA3D4-40EC-4CC1-B786-8BED09428FC5): 3
LogDevObjectVersion:   Dev-AnimPhys (29E575DD-E0A3-4627-9D10-D276232CDCEA): 17
LogDevObjectVersion:   Dev-ReflectionCapture (6B266CEC-1EC7-4B8F-A30B-E4D90942FC07): 1
LogDevObjectVersion:   Dev-Automation (0DF73D61-A23F-47EA-B727-89E90C41499A): 1
LogDevObjectVersion:   FortniteMain (601D1886-AC64-4F84-AA16-D3DE0DEAC7D6): 12
LogDevObjectVersion:   Dev-Enterprise (9DFFBCD6-494F-0158-E221-12823C92A888): 1
LogStreaming: Display: Took  0.008s to delete old logs.
LogInit: Presizing for max 8388607 objects, including 0 objects not considered by GC, pre-allocating 0 bytes for permanent pool.
LogInit: Object subsystem initialized
[2018.10.02-08.41.33:233][  0]LogInit: Selected Device Profile: [Windows]
[2018.10.02-08.41.33:234][  0]LogInit: Applying CVar settings loaded from the selected device profile: [Windows]
[2018.10.02-08.41.33:245][  0]LogHAL: Display: Platform has ~ 16 GB [17066639360 / 17179869184 / 16], which maps to Larger [LargestMinGB=32, LargerMinGB=12, DefaultMinGB=8, SmallerMinGB=6, SmallestMinGB=0)
[2018.10.02-08.41.33:246][  0]LogInit: Setting Device Profile CVar: [[r.Vulkan.UseRealUBs:1]]
[2018.10.02-08.41.33:246][  0]LogInit: Going up to parent DeviceProfile []
[2018.10.02-08.41.33:248][  0]LogInit: Computer: DESKTOP-4J5R0R0
[2018.10.02-08.41.33:248][  0]LogInit: User: fredd019stem
[2018.10.02-08.41.33:248][  0]LogInit: CPU Page size=4096, Cores=4
[2018.10.02-08.41.33:248][  0]LogInit: High frequency timer resolution =2.250000 MHz
[2018.10.02-08.41.33:248][  0]LogMemory: Memory total: Physical=15.9GB (16GB approx)
[2018.10.02-08.41.33:248][  0]LogMemory: Platform Memory Stats for Windows
[2018.10.02-08.41.33:248][  0]LogMemory: Process Physical Memory: 100.86 MB used, 100.86 MB peak
[2018.10.02-08.41.33:248][  0]LogMemory: Process Virtual Memory: 87.39 MB used, 87.39 MB peak
[2018.10.02-08.41.33:248][  0]LogMemory: Physical Memory: 4853.49 MB used,  11422.53 MB free, 16276.02 MB total
[2018.10.02-08.41.33:248][  0]LogMemory: Virtual Memory: 4627.25 MB used,  11422.53 MB free, 134217728.00 MB total
[2018.10.02-08.41.33:374][  0]LogInit: Using OS detected language (en-GB).
[2018.10.02-08.41.33:374][  0]LogInit: Using OS detected locale (en-GB).
[2018.10.02-08.41.33:375][  0]LogTextLocalizationManager: No specific localization for 'en-GB' exists, so the 'en' localization will be used.
[2018.10.02-08.41.33:713][  0]LogStreaming: Display: Took  0.339s to InitEngineTextLocalization.
[2018.10.02-08.41.33:714][  0]LogInit: Setting process to per monitor DPI aware
[2018.10.02-08.41.33:763][  0]LogSlate: New Slate User Created.  User Index 0, Is Virtual User: 0
[2018.10.02-08.41.33:763][  0]LogSlate: Slate User Registered.  User Index 0, Is Virtual User: 0
[2018.10.02-08.41.34:156][  0]LogHMD: Failed to initialize OpenVR with code 110
[2018.10.02-08.41.34:156][  0]LogD3D11RHI: D3D11 adapters:
[2018.10.02-08.41.35:041][  0]LogD3D11RHI:    0. 'NVIDIA GeForce GTX 1060' (Feature Level 11_0)
[2018.10.02-08.41.35:041][  0]LogD3D11RHI:       6052/0/8138 MB DedicatedVideo/DedicatedSystem/SharedSystem, Outputs:1, VendorId:0x10de
[2018.10.02-08.41.35:056][  0]LogD3D11RHI:    1. 'Intel(R) UHD Graphics 630' (Feature Level 11_0)
[2018.10.02-08.41.35:056][  0]LogD3D11RHI:       128/0/8138 MB DedicatedVideo/DedicatedSystem/SharedSystem, Outputs:0, VendorId:0x8086
[2018.10.02-08.41.35:058][  0]LogD3D11RHI:    2. 'Microsoft Basic Render Driver' (Feature Level 11_0)
[2018.10.02-08.41.35:058][  0]LogD3D11RHI:       0/0/8138 MB DedicatedVideo/DedicatedSystem/SharedSystem, Outputs:0, VendorId:0x1414
[2018.10.02-08.41.35:058][  0]LogD3D11RHI: Chosen D3D11 Adapter: 0
[2018.10.02-08.41.35:084][  0]LogD3D11RHI: Creating new Direct3DDevice
[2018.10.02-08.41.35:084][  0]LogD3D11RHI:     GPU DeviceId: 0x1c20 (for the marketing name, search the web for "GPU Device Id")
[2018.10.02-08.41.35:085][  0]LogWindows: EnumDisplayDevices:
[2018.10.02-08.41.35:085][  0]LogWindows:    0. 'Intel(R) UHD Graphics 630' (P:1 D:1)
[2018.10.02-08.41.35:085][  0]LogWindows:    1. 'Intel(R) UHD Graphics 630' (P:0 D:0)
[2018.10.02-08.41.35:085][  0]LogWindows:    2. 'Intel(R) UHD Graphics 630' (P:0 D:0)
[2018.10.02-08.41.35:086][  0]LogWindows:    3. 'NVIDIA GeForce GTX 1060' (P:0 D:0)
[2018.10.02-08.41.35:086][  0]LogWindows: DebugString: PrimaryIsNotTheChoosenAdapter PrimaryIsNotTheChoosenAdapter PrimaryIsNotTheChoosenAdapter 
[2018.10.02-08.41.35:086][  0]LogD3D11RHI:     Adapter Name: NVIDIA GeForce GTX 1060
[2018.10.02-08.41.35:087][  0]LogD3D11RHI:   Driver Version: 398.36 (internal:24.21.13.9836, unified:398.36)
[2018.10.02-08.41.35:087][  0]LogD3D11RHI:      Driver Date: 6-24-2018
[2018.10.02-08.41.35:087][  0]LogRHI: Texture pool is 4236 MB (70% of 6052 MB)
[2018.10.02-08.41.35:125][  0]LogD3D11RHI: Async texture creation enabled
[2018.10.02-08.41.35:157][  0]LogD3D11RHI: GPU Timing Frequency: 1000.000000 (Debug: 2 2)
[2018.10.02-08.41.35:161][  0]LogShaderCompilers: Guid format shader working directory is -66 characters bigger than the processId version (../../../../../../Users/fredd_019stem/Desktop/Git_Repo/freddietaylor-bell-xb3001-technical-desinger/1_TowerDefenceProto/Intermediate/Shaders/WorkingDirectory/11956/).
[2018.10.02-08.41.35:162][  0]LogShaderCompilers: Cleaned the shader compiler working directory 'C:/Users/fredd_019stem/AppData/Local/Temp/UnrealShaderWorkingDir/56C1B1354503378797B8A0947E87EFF2/'.
[2018.10.02-08.41.35:493][  0]LogTemp: Display: Loaded TP AllDesktopTargetPlatform
[2018.10.02-08.41.35:506][  0]LogTemp: Display: Loaded TP MacClientTargetPlatform
[2018.10.02-08.41.35:519][  0]LogTemp: Display: Loaded TP MacNoEditorTargetPlatform
[2018.10.02-08.41.35:534][  0]LogTemp: Display: Loaded TP MacServerTargetPlatform
[2018.10.02-08.41.35:550][  0]LogTemp: Display: Loaded TP MacTargetPlatform
[2018.10.02-08.41.35:569][  0]LogTemp: Display: Loaded TP WindowsClientTargetPlatform
[2018.10.02-08.41.35:586][  0]LogTemp: Display: Loaded TP WindowsNoEditorTargetPlatform
[2018.10.02-08.41.35:602][  0]LogTemp: Display: Loaded TP WindowsServerTargetPlatform
[2018.10.02-08.41.35:613][  0]LogTemp: Display: Loaded TP WindowsTargetPlatform
[2018.10.02-08.41.35:693][  0]LogTemp: Display: Loaded TP AndroidTargetPlatform
[2018.10.02-08.41.35:693][  0]LogTemp: Display: Loaded TP AndroidTargetPlatform
[2018.10.02-08.41.35:693][  0]LogTemp: Display: Loaded TP AndroidTargetPlatform
[2018.10.02-08.41.35:693][  0]LogTemp: Display: Loaded TP AndroidTargetPlatform
[2018.10.02-08.41.35:693][  0]LogTemp: Display: Loaded TP AndroidTargetPlatform
[2018.10.02-08.41.35:693][  0]LogTemp: Display: Loaded TP AndroidTargetPlatform
[2018.10.02-08.41.35:693][  0]LogTemp: Display: Loaded TP AndroidTargetPlatform
[2018.10.02-08.41.35:693][  0]LogTemp: Display: Loaded TP AndroidTargetPlatform
[2018.10.02-08.41.35:693][  0]LogTemp: Display: Loaded TP AndroidTargetPlatform
[2018.10.02-08.41.35:693][  0]LogTemp: Display: Loaded TP AndroidTargetPlatform
[2018.10.02-08.41.35:693][  0]LogTemp: Display: Loaded TP AndroidTargetPlatform
[2018.10.02-08.41.35:693][  0]LogTemp: Display: Loaded TP AndroidTargetPlatform
[2018.10.02-08.41.35:693][  0]LogTemp: Display: Loaded TP AndroidTargetPlatform
[2018.10.02-08.41.35:693][  0]LogTemp: Display: Loaded TP AndroidTargetPlatform
[2018.10.02-08.41.35:693][  0]LogTemp: Display: Loaded TP AndroidTargetPlatform
[2018.10.02-08.41.35:693][  0]LogTemp: Display: Loaded TP AndroidTargetPlatform
[2018.10.02-08.41.35:693][  0]LogTemp: Display: Loaded TP AndroidTargetPlatform
[2018.10.02-08.41.35:693][  0]LogTemp: Display: Loaded TP AndroidTargetPlatform
[2018.10.02-08.41.35:699][  0]LogTemp: Display: Loaded TP HTML5TargetPlatform
[2018.10.02-08.41.35:775][  0]LogTemp: Display: Loaded TP IOSTargetPlatform
[2018.10.02-08.41.35:775][  0]LogTemp: Display: Loaded TP IOSTargetPlatform
[2018.10.02-08.41.35:800][  0]LogTemp: Display: Loaded TP TVOSTargetPlatform
[2018.10.02-08.41.35:800][  0]LogTemp: Display: Loaded TP TVOSTargetPlatform
[2018.10.02-08.41.35:817][  0]LogTemp: Display: Loaded TP LinuxClientTargetPlatform
[2018.10.02-08.41.35:833][  0]LogTemp: Display: Loaded TP LinuxNoEditorTargetPlatform
[2018.10.02-08.41.35:848][  0]LogTemp: Display: Loaded TP LinuxServerTargetPlatform
[2018.10.02-08.41.35:865][  0]LogTemp: Display: Loaded TP LinuxTargetPlatform
[2018.10.02-08.41.35:877][  0]LogTemp: Display: Loaded TP LuminTargetPlatform
[2018.10.02-08.41.35:877][  0]LogTargetPlatformManager: Display: Building Assets For Windows
[2018.10.02-08.41.36:051][  0]LogXGEController: Cleaning working directory: C:/Users/fredd_019stem/AppData/Local/Temp/UnrealXGEWorkingDir/
[2018.10.02-08.41.36:051][  0]LogXGEController: Cannot use XGE Controller as Incredibuild is not installed on this machine.
[2018.10.02-08.41.36:051][  0]LogShaderCompilers: Cannot use XGE Shader Compiler as Incredibuild is not installed on this machine.
[2018.10.02-08.41.36:051][  0]LogShaderCompilers: Display: Using Local Shader Compiler.
[2018.10.02-08.41.36:856][  0]LogDerivedDataCache: Display: Max Cache Size: 512 MB
[2018.10.02-08.41.37:106][  0]LogDerivedDataCache: Loaded boot cache 0.25s 71MB C:/Users/fredd_019stem/AppData/Local/UnrealEngine/4.20/DerivedDataCache/Boot.ddc.
[2018.10.02-08.41.37:107][  0]LogDerivedDataCache: Display: Loaded Boot cache: C:/Users/fredd_019stem/AppData/Local/UnrealEngine/4.20/DerivedDataCache/Boot.ddc
[2018.10.02-08.41.37:107][  0]LogDerivedDataCache: FDerivedDataBackendGraph:  Pak pak cache file ../../../../../../Users/fredd_019stem/Desktop/Git_Repo/freddietaylor-bell-xb3001-technical-desinger/1_TowerDefenceProto/DerivedDataCache/DDC.ddp not found, will not use a pak cache.
[2018.10.02-08.41.37:107][  0]LogDerivedDataCache: Unable to find inner node Pak for hierarchical cache Hierarchy.
[2018.10.02-08.41.37:107][  0]LogDerivedDataCache: FDerivedDataBackendGraph:  CompressedPak pak cache file ../../../../../../Users/fredd_019stem/Desktop/Git_Repo/freddietaylor-bell-xb3001-technical-desinger/1_TowerDefenceProto/DerivedDataCache/Compressed.ddp not found, will not use a pak cache.
[2018.10.02-08.41.37:107][  0]LogDerivedDataCache: Unable to find inner node CompressedPak for hierarchical cache Hierarchy.
[2018.10.02-08.41.37:125][  0]LogDerivedDataCache: Display: Pak cache opened for reading ../../../Engine/DerivedDataCache/Compressed.ddp.
[2018.10.02-08.41.37:138][  0]LogDerivedDataCache: Using Local data cache path C:/Users/fredd_019stem/AppData/Local/UnrealEngine/Common/DerivedDataCache: Writable
[2018.10.02-08.41.37:138][  0]LogDerivedDataCache: Shared data cache path not found in *engine.ini, will not use an Shared cache.
[2018.10.02-08.41.37:138][  0]LogDerivedDataCache: Unable to find inner node Shared for hierarchical cache Hierarchy.
[2018.10.02-08.41.37:156][  0]LogMaterial: Verifying Global Shaders for PCD3D_SM5
[2018.10.02-08.41.37:167][  0]LogSlate: Using FreeType 2.6.0
[2018.10.02-08.41.37:172][  0]LogSlate: SlateFontServices - WITH_FREETYPE: 1, WITH_HARFBUZZ: 1
[2018.10.02-08.41.37:336][  0]LogAssetRegistry: FAssetRegistry took 0.0300 seconds to start up
[2018.10.02-08.41.37:668][  0]LogInit: Selected Device Profile: [Windows]
[2018.10.02-08.41.37:881][  0]LogSimplygon: Simplygon DLL not present - disabling.
[2018.10.02-08.41.37:905][  0]LogMeshReduction: Using SimplygonSwarm for distributed automatic mesh merging
[2018.10.02-08.41.37:905][  0]LogMeshReduction: Using ProxyLODMeshReduction for automatic mesh merging
[2018.10.02-08.41.37:906][  0]LogMeshReduction: Using QuadricMeshReduction for automatic static mesh reduction
[2018.10.02-08.41.37:906][  0]LogMeshReduction: No automatic skeletal mesh reduction module available
[2018.10.02-08.41.37:938][  0]LogNetVersion: TowerDefenceProto 1.0.0, NetCL: 4212847, EngineNetVer: 5, GameNetVer: 0 (Checksum: 2805994550)
[2018.10.02-08.41.38:740][  0]LogPackageLocalizationCache: Processed 11 localized package path(s) for 2 prioritized culture(s) in 0.198875 seconds
[2018.10.02-08.41.38:746][  0]LogUObjectArray: 38425 objects as part of root set at end of initial load.
[2018.10.02-08.41.38:746][  0]LogUObjectAllocator: 6690872 out of 0 bytes used by permanent object pool.
[2018.10.02-08.41.38:746][  0]LogUObjectArray: CloseDisregardForGC: 0/0 objects in disregard for GC pool
[2018.10.02-08.41.40:694][  0]LogTcpMessaging: Initializing TcpMessaging bridge
[2018.10.02-08.41.40:715][  0]LogUdpMessaging: Initializing bridge on interface 0.0.0.0:0 to multicast group 230.0.0.1:6666.
[2018.10.02-08.41.41:033][  0]SourceControl: Source control is disabled
[2018.10.02-08.41.41:034][  0]SourceControl: Source control is disabled
[2018.10.02-08.41.41:053][  0]SourceControl: Source control is disabled
[2018.10.02-08.41.41:067][  0]SourceControl: Source control is disabled
[2018.10.02-08.41.41:504][  0]LogAndroidPermission: UAndroidPermissionCallbackProxy::GetInstance
[2018.10.02-08.41.41:598][  0]LogOcInput: OculusInput pre-init called
[2018.10.02-08.41.41:709][  0]LogEngine: Initializing Engine...
[2018.10.02-08.41.41:713][  0]LogHMD: Failed to initialize OpenVR with code 110
[2018.10.02-08.41.41:718][  0]LogStats: UGameplayTagsManager::ConstructGameplayTagTree: ImportINI prefixes -  0.001 s
[2018.10.02-08.41.41:718][  0]LogStats: UGameplayTagsManager::ConstructGameplayTagTree: Construct from data asset -  0.000 s
[2018.10.02-08.41.41:718][  0]LogStats: UGameplayTagsManager::ConstructGameplayTagTree: ImportINI -  0.000 s
[2018.10.02-08.41.41:718][  0]LogStats: UGameplayTagsManager::ConstructGameplayTagTree: GameplayTagTreeChangedEvent.Broadcast -  0.000 s
[2018.10.02-08.41.41:908][  0]LogInit: Initializing FReadOnlyCVARCache
[2018.10.02-08.41.41:961][  0]LogAIModule: Creating AISystem for world Untitled
[2018.10.02-08.41.41:987][  0]LogInit: XAudio2 using 'Speakers (Realtek(R) Audio)' : 2 channels at 48 kHz using 32 bits per sample (channel mask 0x3)
[2018.10.02-08.41.42:019][  0]LogInit: FAudioDevice initialized.
[2018.10.02-08.41.42:019][  0]LogNetVersion: Set ProjectVersion to 1.0.0.0. Version Checksum will be recalculated on next use.
[2018.10.02-08.41.42:099][  0]LogDerivedDataCache: Saved boot cache 0.08s 71MB C:/Users/fredd_019stem/AppData/Local/UnrealEngine/4.20/DerivedDataCache/Boot.ddc.
[2018.10.02-08.41.42:099][  0]LogInit: Texture streaming: Enabled
[2018.10.02-08.41.42:179][  0]LogEngineSessionManager: EngineSessionManager initialized
[2018.10.02-08.41.42:201][  0]LogInit: Transaction tracking system initialized
[2018.10.02-08.41.42:268][  0]BlueprintLog: New page: Editor Load
[2018.10.02-08.41.42:497][  0]LocalizationService: Localization service is disabled
[2018.10.02-08.41.42:945][  0]LogCook: Display: Max memory allowance for cook 16384mb min free memory 0mb
[2018.10.02-08.41.42:946][  0]LogCook: Display: Mobile HDR setting 1
[2018.10.02-08.41.42:946][  0]LogGameplayTags: Display: UGameplayTagsManager::DoneAddingNativeTags. DelegateIsBound: 0
[2018.10.02-08.41.42:946][  0]LogStats: UGameplayTagsManager::ConstructGameplayTagTree: ImportINI prefixes -  0.000 s
[2018.10.02-08.41.42:946][  0]LogStats: UGameplayTagsManager::ConstructGameplayTagTree: Construct from data asset -  0.000 s
[2018.10.02-08.41.42:946][  0]LogStats: UGameplayTagsManager::ConstructGameplayTagTree: ImportINI -  0.000 s
[2018.10.02-08.41.42:946][  0]LogStats: UGameplayTagsManager::ConstructGameplayTagTree: GameplayTagTreeChangedEvent.Broadcast -  0.000 s
[2018.10.02-08.41.43:246][  0]LogFileCache: Scanning file cache for directory 'C:/Users/fredd_019stem/Desktop/Git_Repo/freddietaylor-bell-xb3001-technical-desinger/1_TowerDefenceProto/Content/' took 0.01s
[2018.10.02-08.41.43:246][  0]SourceControl: Source control is disabled
[2018.10.02-08.41.43:250][  0]LightingResults: New page: Lighting Build
[2018.10.02-08.41.43:263][  0]MapCheck: New page: Map Check
[2018.10.02-08.41.43:263][  0]LightingResults: New page: Lighting Build
[2018.10.02-08.41.43:628][  0]LogStaticMesh: Building static mesh Gattling_Turret_Top...
[2018.10.02-08.41.43:667][  0]LogStaticMesh: Built static mesh [0.04s] /Game/3_3DArt/1_Alex/Gattling_Turret_Top.Gattling_Turret_Top
[2018.10.02-08.41.43:677][  0]LogMaterial: Display: Missing cached shader map for material lambert1, compiling. 
[2018.10.02-08.41.43:720][  0]LogStaticMesh: Building static mesh Floating_Kaiju...
[2018.10.02-08.41.43:746][  0]LogShaderCompilers: Display: Shaders left to compile 22
[2018.10.02-08.41.43:746][  0]LogShaderCompilers: Display: Shaders left to compile 12
[2018.10.02-08.41.43:746][  0]LogShaderCompilers: Display: Shaders left to compile 2
[2018.10.02-08.41.43:747][  0]LogStaticMesh: Built static mesh [0.03s] /Game/3_3DArt/2_Cameron/Floating_Kaiju.Floating_Kaiju
[2018.10.02-08.41.43:785][  0]LogStaticMesh: Building static mesh City_Struct_-_Build_02...
[2018.10.02-08.41.43:797][  0]LogStaticMesh: Built static mesh [0.01s] /Game/3_3DArt/3_Chris/City_Struct_-_Build_02.City_Struct_-_Build_02
[2018.10.02-08.41.43:856][  0]LogAIModule: Creating AISystem for world PlaceholderTech_Map
[2018.10.02-08.41.43:885][  0]LogEditorServer: Finished looking for orphan Actors (0.000 secs)
[2018.10.02-08.41.43:910][  0]Cmd: MAP CHECKDEP NOCLEARLOG
[2018.10.02-08.41.44:001][  0]MapCheck: Map check complete: 0 Error(s), 0 Warning(s), took 91.556ms to complete.
[2018.10.02-08.41.44:001][  0]LogFileHelpers: Loading map 'PlaceholderTech_Map' took 0.754
[2018.10.02-08.41.44:143][  0]LogSlate: Updating window title bar state: overlay mode, drag disabled, window buttons hidden, title bar hidden
[2018.10.02-08.41.44:153][  0]LogSlate: Updating window title bar state: overlay mode, drag disabled, window buttons hidden, title bar hidden
[2018.10.02-08.41.44:162][  0]LogSlate: Updating window title bar state: overlay mode, drag disabled, window buttons hidden, title bar hidden
[2018.10.02-08.41.44:170][  0]LogSlate: Updating window title bar state: overlay mode, drag disabled, window buttons hidden, title bar hidden
[2018.10.02-08.41.44:199][  0]LogCollectionManager: Loaded 0 collections in 0.002047 seconds
[2018.10.02-08.41.44:350][  0]LogFileCache: Scanning file cache for directory 'C:/Users/fredd_019stem/Desktop/Git_Repo/freddietaylor-bell-xb3001-technical-desinger/1_TowerDefenceProto/Saved/Collections/' took 0.01s
[2018.10.02-08.41.44:350][  0]LogFileCache: Scanning file cache for directory 'C:/Users/fredd_019stem/Desktop/Git_Repo/freddietaylor-bell-xb3001-technical-desinger/1_TowerDefenceProto/Content/Developers/fredd019stem/Collections/' took 0.01s
[2018.10.02-08.41.44:350][  0]LogFileCache: Scanning file cache for directory 'C:/Users/fredd_019stem/Desktop/Git_Repo/freddietaylor-bell-xb3001-technical-desinger/1_TowerDefenceProto/Content/Collections/' took 0.01s
[2018.10.02-08.41.44:350][  0]LogCollectionManager: Rebuilt the GUID cache for 0 collections in 0.000000 seconds
[2018.10.02-08.41.44:364][  0]LogContentBrowser: Native class hierarchy populated in 0.0119 seconds. Added 2572 classes and 603 folders.
[2018.10.02-08.41.44:379][  0]LogContentBrowser: Native class hierarchy updated for 'WidgetCarousel' in 0.0003 seconds. Added 0 classes and 0 folders.
[2018.10.02-08.41.44:505][  0]LogContentBrowser: Native class hierarchy updated for 'AddContentDialog' in 0.0002 seconds. Added 0 classes and 0 folders.
[2018.10.02-08.41.44:517][  0]LogContentBrowser: Native class hierarchy updated for 'SceneOutliner' in 0.0002 seconds. Added 1 classes and 2 folders.
[2018.10.02-08.41.44:574][  0]LogSlate: Took 0.001348 seconds to synchronously load lazily loaded font '../../../Engine/Content/Slate/Fonts/Roboto-Regular.ttf' (155K)
[2018.10.02-08.41.44:579][  0]LogSlate: Took 0.001477 seconds to synchronously load lazily loaded font '../../../Engine/Content/Slate/Fonts/Roboto-Bold.ttf' (160K)
[2018.10.02-08.41.44:589][  0]LogSlate: Took 0.001616 seconds to synchronously load lazily loaded font '../../../Engine/Content/Editor/Slate/Fonts/FontAwesome.ttf' (139K)
[2018.10.02-08.41.44:681][  0]LogRenderer: Reallocating scene render targets to support 964x436 Format 10 NumSamples 1 (Frame:1).
[2018.10.02-08.41.44:843][  0]LogContentBrowser: Native class hierarchy updated for 'HierarchicalLODOutliner' in 0.0002 seconds. Added 0 classes and 0 folders.
[2018.10.02-08.41.44:843][  0]LogLoad: (Engine Initialization) Total time: 16.26 seconds
[2018.10.02-08.41.44:843][  0]LogLoad: (Engine Initialization) Total Blueprint compile time: 0.00 seconds
[2018.10.02-08.41.44:903][  0]LogContentStreaming: Texture pool size now 1000 MB
[2018.10.02-08.41.44:924][  0]LogSlate: Took 0.001540 seconds to synchronously load lazily loaded font '../../../Engine/Content/Slate/Fonts/Roboto-Light.ttf' (167K)
[2018.10.02-08.41.44:955][  1]LogFileCache: Retrieving MD5 hashes for directory 'C:/Users/fredd_019stem/Desktop/Git_Repo/freddietaylor-bell-xb3001-technical-desinger/1_TowerDefenceProto/Content/' took 0.07s
[2018.10.02-08.41.44:968][  1]LogAssetRegistry: Asset discovery search completed in 7.6553 seconds
[2018.10.02-08.41.44:970][  1]LogCollectionManager: Rebuilt the object cache for 0 collections in 0.000000 seconds (found 0 objects)
[2018.10.02-08.41.44:970][  1]LogCollectionManager: Fixed up redirectors for 0 collections in 0.000045 seconds (updated 0 objects)
[2018.10.02-08.41.45:902][ 54]LogSlate: Took 0.000246 seconds to synchronously load lazily loaded font '../../../Engine/Content/Slate/Fonts/Roboto-Light.ttf' (167K)
[2018.10.02-08.41.52:432][121]LogSlate: FSceneViewport::OnFocusLost() reason 0
[2018.10.02-08.41.57:432][417]LogSlate: FSceneViewport::OnFocusLost() reason 0
[2018.10.02-08.42.02:941][673]LogSlate: Window 'Delete Assets' being destroyed
[2018.10.02-08.42.17:159][407]LogSlate: Window 'Delete Assets' being destroyed
[2018.10.02-08.42.29:072][114]LogAssetEditorManager: Opening Asset editor for Blueprint /Game/1_TechicalDesign/1_Blueprints/AI/Enemy_BP.Enemy_BP
[2018.10.02-08.42.29:519][114]LogContentBrowser: Native class hierarchy updated for 'BlueprintGraph' in 0.0005 seconds. Added 116 classes and 0 folders.
[2018.10.02-08.42.30:211][114]LogSlate: Took 0.001362 seconds to synchronously load lazily loaded font '../../../Engine/Content/Slate/Fonts/Roboto-BoldCondensed.ttf' (158K)
[2018.10.02-08.42.30:338][115]LogSlate: Took 0.001692 seconds to synchronously load lazily loaded font '../../../Engine/Content/Slate/Fonts/Roboto-Italic.ttf' (157K)
[2018.10.02-08.42.31:054][156]LogRenderer: Reallocating scene render targets to support 964x540 Format 10 NumSamples 1 (Frame:1).
[2018.10.02-08.42.36:891][506]LogSlate: FSceneViewport::OnFocusLost() reason 0
[2018.10.02-08.43.02:630][938]LogSlate: FSceneViewport::OnFocusLost() reason 0
[2018.10.02-08.43.17:032][800]LogSlate: FSceneViewport::OnFocusLost() reason 0
[2018.10.02-08.43.30:497][607]LogSlate: FSceneViewport::OnFocusLost() reason 0
[2018.10.02-08.43.30:546][610]BlueprintLog: New page: Compile Enemy_BP
[2018.10.02-08.43.31:366][638]LogSavePackage: Moving '../../../../../../Users/fredd_019stem/Desktop/Git_Repo/freddietaylor-bell-xb3001-technical-desinger/1_TowerDefenceProto/Saved/Enemy_BP8C12104A45FF7953B6E57FB047E2EB3A.tmp' to '../../../../../../Users/fredd_019stem/Desktop/Git_Repo/freddietaylor-bell-xb3001-technical-desinger/1_TowerDefenceProto/Content/1_TechicalDesign/1_Blueprints/AI/Enemy_BP.uasset'
[2018.10.02-08.51.45:326][258]LogSavePackage: Moving '../../../../../../Users/fredd_019stem/Desktop/Git_Repo/freddietaylor-bell-xb3001-technical-desinger/1_TowerDefenceProto/Saved/PlaceholderTech_Map_Auto1C9BC09F6493BBA3209329581CFCE2535.tmp' to '../../../../../../Users/fredd_019stem/Desktop/Git_Repo/freddietaylor-bell-xb3001-technical-desinger/1_TowerDefenceProto/Saved/Autosaves/Game/2_LevelDesign/Maps/PlaceholderTech_Map_Auto1.umap'
[2018.10.02-08.51.45:334][258]LogFileHelpers: Editor autosave (incl. sublevels) for '/Game/2_LevelDesign/Maps/PlaceholderTech_Map' took 0.257
[2018.10.02-08.51.45:334][258]LogFileHelpers: Editor autosave (incl. sublevels) for all levels took 0.257
[2018.10.02-09.02.08:628][952]LogSlate: FSceneViewport::OnFocusLost() reason 0
[2018.10.02-09.02.08:786][956]LogSavePackage: Moving '../../../../../../Users/fredd_019stem/Desktop/Git_Repo/freddietaylor-bell-xb3001-technical-desinger/1_TowerDefenceProto/Saved/Enemy_BP71EC53784E1D90B3B969E7872FAB9641.tmp' to '../../../../../../Users/fredd_019stem/Desktop/Git_Repo/freddietaylor-bell-xb3001-technical-desinger/1_TowerDefenceProto/Content/1_TechicalDesign/1_Blueprints/AI/Enemy_BP.uasset'
[2018.10.02-09.02.13:938][265]LogSlate: FSceneViewport::OnFocusLost() reason 0
[2018.10.02-09.02.22:270][761]LogAssetEditorManager: Opening Asset editor for Blueprint /Game/1_TechicalDesign/1_Blueprints/Tower/Tower_BP.Tower_BP
[2018.10.02-09.02.26:730][  4]LogSlate: FSceneViewport::OnFocusLost() reason 2
[2018.10.02-09.02.32:676][360]LogLinker: Warning: Can't find file '/Game/3_3DArt/1_Alex/lambert1'
[2018.10.02-09.02.32:677][360]LogLinker: Warning: Can't find file for asset '/Game/3_3DArt/1_Alex/lambert1' while loading ../../../../../../Users/fredd_019stem/Desktop/Git_Repo/freddietaylor-bell-xb3001-technical-desinger/1_TowerDefenceProto/Content/3_3DArt/1_Alex/Gattling_Turret_Base.uasset.
[2018.10.02-09.02.32:677][360]LoadErrors: Error: /Game/3_3DArt/1_Alex/Gattling_Turret_Base : Can't find file for asset. /Game/3_3DArt/1_Alex/lambert1
[2018.10.02-09.02.32:677][360]LogLinker: Warning: Can't find file '/Game/3_3DArt/1_Alex/lambert1'
[2018.10.02-09.02.32:677][360]LogLinker: Warning: Can't find file for asset '/Game/3_3DArt/1_Alex/lambert1' while loading ../../../../../../Users/fredd_019stem/Desktop/Git_Repo/freddietaylor-bell-xb3001-technical-desinger/1_TowerDefenceProto/Content/3_3DArt/1_Alex/Gattling_Turret_Base.uasset.
[2018.10.02-09.02.32:677][360]LogLinker: Warning: Can't find file '/Game/3_3DArt/1_Alex/lambert1'
[2018.10.02-09.02.32:677][360]LoadErrors: Failed to load /Game/3_3DArt/1_Alex/lambert1.lambert1 Referenced by Gattling_Turret_Base
[2018.10.02-09.02.32:678][360]LogLinker: Warning: Can't find file for asset '/Game/3_3DArt/1_Alex/lambert1' while loading NULL.
[2018.10.02-09.02.32:678][360]LogLinker: Warning: Can't find file '/Game/3_3DArt/1_Alex/lambert1'
[2018.10.02-09.02.32:678][360]LogLinker: Warning: Can't find file for asset '/Game/3_3DArt/1_Alex/lambert1' while loading NULL.
[2018.10.02-09.02.32:679][360]LogStaticMesh: Building static mesh Gattling_Turret_Base...
[2018.10.02-09.02.32:684][360]LogSlate: FSceneViewport::OnFocusLost() reason 2
[2018.10.02-09.02.32:696][360]LogStaticMesh: Built static mesh [0.02s] /Game/3_3DArt/1_Alex/Gattling_Turret_Base.Gattling_Turret_Base
[2018.10.02-09.02.39:721][781]LogEditorTransaction: Undo Modify Component(s)
[2018.10.02-09.02.44:278][ 52]LogEditorTransaction: Undo Modify Component(s)
[2018.10.02-09.02.45:601][131]LogSlate: FSceneViewport::OnFocusLost() reason 0
[2018.10.02-09.02.47:016][215]BlueprintLog: New page: Compile Tower_BP
[2018.10.02-09.02.48:235][277]LogEditorTransaction: Undo Edit Static Mesh
[2018.10.02-09.02.48:459][290]LogEditorTransaction: Undo Modify Component(s)
[2018.10.02-09.02.50:112][382]LogSavePackage: Moving '../../../../../../Users/fredd_019stem/Desktop/Git_Repo/freddietaylor-bell-xb3001-technical-desinger/1_TowerDefenceProto/Saved/Tower_BPE26A9624443E8EED964E4093E9A5613A.tmp' to '../../../../../../Users/fredd_019stem/Desktop/Git_Repo/freddietaylor-bell-xb3001-technical-desinger/1_TowerDefenceProto/Content/1_TechicalDesign/1_Blueprints/Tower/Tower_BP.uasset'
[2018.10.02-09.02.50:750][420]LogSlate: FSceneViewport::OnFocusLost() reason 0
[2018.10.02-09.03.10:022][633]LogTemp: Repeating last play command: Selected Viewport
[2018.10.02-09.03.10:043][633]LogBlueprintUserMessages: Early PlayInEditor Detection: Level '/Game/2_LevelDesign/Maps/PlaceholderTech_Map.PlaceholderTech_Map:PersistentLevel' has LevelScriptBlueprint '/Game/2_LevelDesign/Maps/PlaceholderTech_Map.PlaceholderTech_Map:PersistentLevel.PlaceholderTech_Map' with GeneratedClass '/Game/2_LevelDesign/Maps/PlaceholderTech_Map.PlaceholderTech_Map_C' with ClassGeneratedBy '/Game/2_LevelDesign/Maps/PlaceholderTech_Map.PlaceholderTech_Map:PersistentLevel.PlaceholderTech_Map'
[2018.10.02-09.03.10:043][633]LogPlayLevel: PlayLevel: No blueprints needed recompiling
[2018.10.02-09.03.10:058][633]PIE: New page: PIE session: PlaceholderTech_Map (2 Oct 2018 11:03:10)
[2018.10.02-09.03.10:058][633]LogPlayLevel: Creating play world package: /Game/2_LevelDesign/Maps/UEDPIE_0_PlaceholderTech_Map
[2018.10.02-09.03.10:062][633]LogPlayLevel: PIE: StaticDuplicateObject took: (0.004628s)
[2018.10.02-09.03.10:063][633]LogAIModule: Creating AISystem for world PlaceholderTech_Map
[2018.10.02-09.03.10:063][633]LogPlayLevel: PIE: World Init took: (0.000567s)
[2018.10.02-09.03.10:063][633]LogPlayLevel: PIE: Created PIE world by copying editor world from /Game/2_LevelDesign/Maps/PlaceholderTech_Map.PlaceholderTech_Map to /Game/2_LevelDesign/Maps/UEDPIE_0_PlaceholderTech_Map.PlaceholderTech_Map (0.005315s)
[2018.10.02-09.03.10:090][633]LogInit: XAudio2 using 'Speakers (Realtek(R) Audio)' : 2 channels at 48 kHz using 32 bits per sample (channel mask 0x3)
[2018.10.02-09.03.10:096][633]LogInit: FAudioDevice initialized.
[2018.10.02-09.03.10:141][633]LogLinker: Warning: Can't find file '/Game/TowerDefenceGameMode'
[2018.10.02-09.03.10:141][633]LogLinker: Warning: Can't find file '/Game/TowerDefenceGameMode'
[2018.10.02-09.03.10:141][633]LogUObjectGlobals: Warning: Failed to find object 'Class /Game/TowerDefenceGameMode.TowerDefenceGameMode_C'
[2018.10.02-09.03.10:141][633]LogLoad: Game class is 'GameModeBase'
[2018.10.02-09.03.10:144][633]LogWorld: Bringing World /Game/2_LevelDesign/Maps/UEDPIE_0_PlaceholderTech_Map.PlaceholderTech_Map up for play (max tick rate 60) at 2018.10.02-10.03.10
[2018.10.02-09.03.10:147][633]LogWorld: Bringing up level for play took: 0.003500
[2018.10.02-09.03.10:167][633]LogContentBrowser: Native class hierarchy updated for 'MovieSceneCapture' in 0.0003 seconds. Added 10 classes and 0 folders.
[2018.10.02-09.03.10:169][633]PIE: Play in editor start time for /Game/2_LevelDesign/Maps/UEDPIE_0_PlaceholderTech_Map -0.873
[2018.10.02-09.03.10:169][633]LogBlueprintUserMessages: Late PlayInEditor Detection: Level '/Game/2_LevelDesign/Maps/PlaceholderTech_Map.PlaceholderTech_Map:PersistentLevel' has LevelScriptBlueprint '/Game/2_LevelDesign/Maps/PlaceholderTech_Map.PlaceholderTech_Map:PersistentLevel.PlaceholderTech_Map' with GeneratedClass '/Game/2_LevelDesign/Maps/PlaceholderTech_Map.PlaceholderTech_Map_C' with ClassGeneratedBy '/Game/2_LevelDesign/Maps/PlaceholderTech_Map.PlaceholderTech_Map:PersistentLevel.PlaceholderTech_Map'
[2018.10.02-09.03.10:170][633]PIE: Warning: Mobility of /Game/2_LevelDesign/Maps/UEDPIE_0_PlaceholderTech_Map.PlaceholderTech_Map:PersistentLevel.NewPlayer_BP_2 : CollisionCylinder has to be 'Movable' if you'd like to move it with CharacterMovementComponent. 
[2018.10.02-09.03.11:039][684]LogSpawn: Warning: SpawnActor failed because of collision at the spawn location [X=-566.994 Y=-2469.445 Z=162.407] for [Enemy_BP_C]
[2018.10.02-09.03.12:036][744]LogSpawn: Warning: SpawnActor failed because of collision at the spawn location [X=-557.956 Y=-2754.757 Z=156.672] for [Enemy_BP_C]
[2018.10.02-09.03.13:035][804]LogSpawn: Warning: SpawnActor failed because of collision at the spawn location [X=-566.994 Y=-2469.445 Z=162.407] for [Enemy_BP_C]
[2018.10.02-09.03.14:035][864]LogSpawn: Warning: SpawnActor failed because of collision at the spawn location [X=-566.994 Y=-2469.445 Z=162.407] for [Enemy_BP_C]
[2018.10.02-09.03.15:036][924]LogSpawn: Warning: SpawnActor failed because of collision at the spawn location [X=-557.956 Y=-2754.757 Z=156.672] for [Enemy_BP_C]
[2018.10.02-09.03.16:036][984]LogSpawn: Warning: SpawnActor failed because of collision at the spawn location [X=-566.994 Y=-2469.445 Z=162.407] for [Enemy_BP_C]
[2018.10.02-09.03.17:036][ 44]LogSpawn: Warning: SpawnActor failed because of collision at the spawn location [X=-566.994 Y=-2469.445 Z=162.407] for [Enemy_BP_C]
[2018.10.02-09.03.18:036][104]LogSpawn: Warning: SpawnActor failed because of collision at the spawn location [X=-557.956 Y=-2754.757 Z=156.672] for [Enemy_BP_C]
[2018.10.02-09.03.19:035][164]LogSpawn: Warning: SpawnActor failed because of collision at the spawn location [X=-566.994 Y=-2469.445 Z=162.407] for [Enemy_BP_C]
[2018.10.02-09.03.20:035][224]LogSpawn: Warning: SpawnActor failed because of collision at the spawn location [X=-566.994 Y=-2469.445 Z=162.407] for [Enemy_BP_C]
[2018.10.02-09.03.21:036][284]LogSpawn: Warning: SpawnActor failed because of collision at the spawn location [X=-557.956 Y=-2754.757 Z=156.672] for [Enemy_BP_C]
[2018.10.02-09.03.22:035][344]LogSpawn: Warning: SpawnActor failed because of collision at the spawn location [X=-566.994 Y=-2469.445 Z=162.407] for [Enemy_BP_C]
[2018.10.02-09.03.22:752][387]LogSlate: FSceneViewport::OnFocusLost() reason 0
[2018.10.02-09.03.23:078][406]LogSpawn: Warning: SpawnActor failed because of collision at the spawn location [X=-566.994 Y=-2469.445 Z=162.407] for [Enemy_BP_C]
[2018.10.02-09.03.24:078][466]LogSpawn: Warning: SpawnActor failed because of collision at the spawn location [X=-557.956 Y=-2754.757 Z=156.672] for [Enemy_BP_C]
[2018.10.02-09.03.25:079][526]LogSpawn: Warning: SpawnActor failed because of collision at the spawn location [X=-566.994 Y=-2469.445 Z=162.407] for [Enemy_BP_C]
[2018.10.02-09.03.26:079][586]LogSpawn: Warning: SpawnActor failed because of collision at the spawn location [X=-566.994 Y=-2469.445 Z=162.407] for [Enemy_BP_C]
[2018.10.02-09.03.26:946][638]LogBlueprintUserMessages: Early EndPlayMap Detection: Level '/Game/2_LevelDesign/Maps/PlaceholderTech_Map.PlaceholderTech_Map:PersistentLevel' has LevelScriptBlueprint '/Game/2_LevelDesign/Maps/PlaceholderTech_Map.PlaceholderTech_Map:PersistentLevel.PlaceholderTech_Map' with GeneratedClass '/Game/2_LevelDesign/Maps/PlaceholderTech_Map.PlaceholderTech_Map_C' with ClassGeneratedBy '/Game/2_LevelDesign/Maps/PlaceholderTech_Map.PlaceholderTech_Map:PersistentLevel.PlaceholderTech_Map'
[2018.10.02-09.03.26:951][638]LogSlate: Updating window title bar state: overlay mode, drag disabled, window buttons hidden, title bar hidden
[2018.10.02-09.03.26:986][638]LogPlayLevel: Display: Shutting down PIE online subsystems
[2018.10.02-09.03.26:987][638]LogBlueprintUserMessages: Late EndPlayMap Detection: Level '/Game/2_LevelDesign/Maps/PlaceholderTech_Map.PlaceholderTech_Map:PersistentLevel' has LevelScriptBlueprint '/Game/2_LevelDesign/Maps/PlaceholderTech_Map.PlaceholderTech_Map:PersistentLevel.PlaceholderTech_Map' with GeneratedClass '/Game/2_LevelDesign/Maps/PlaceholderTech_Map.PlaceholderTech_Map_C' with ClassGeneratedBy '/Game/2_LevelDesign/Maps/PlaceholderTech_Map.PlaceholderTech_Map:PersistentLevel.PlaceholderTech_Map'
[2018.10.02-09.03.27:011][638]LogSlate: Updating window title bar state: overlay mode, drag disabled, window buttons hidden, title bar hidden
[2018.10.02-09.03.27:048][640]LogPlayLevel: Display: Destroying online subsystem :Context_10
[2018.10.02-09.03.31:330][896]LogSlate: FSceneViewport::OnFocusLost() reason 2
[2018.10.02-09.03.32:052][938]LogSlate: FSceneViewport::OnFocusLost() reason 2
[2018.10.02-09.03.32:400][938]LogSavePackage: Moving '../../../../../../Users/fredd_019stem/Desktop/Git_Repo/freddietaylor-bell-xb3001-technical-desinger/1_TowerDefenceProto/Saved/PlaceholderTech_Map1D7ABE7A4EFB9D47A18432B1C2C77F67.tmp' to '../../../../../../Users/fredd_019stem/Desktop/Git_Repo/freddietaylor-bell-xb3001-technical-desinger/1_TowerDefenceProto/Content/2_LevelDesign/Maps/PlaceholderTech_Map.umap'
[2018.10.02-09.03.32:447][938]LogFileHelpers: Saving map 'PlaceholderTech_Map' took 0.380
[2018.10.02-09.03.32:521][938]LogSavePackage: Moving '../../../../../../Users/fredd_019stem/Desktop/Git_Repo/freddietaylor-bell-xb3001-technical-desinger/1_TowerDefenceProto/Saved/Enemy_BP94021BDC44B6434B65BF9DAD8F1AEB76.tmp' to '../../../../../../Users/fredd_019stem/Desktop/Git_Repo/freddietaylor-bell-xb3001-technical-desinger/1_TowerDefenceProto/Content/1_TechicalDesign/1_Blueprints/AI/Enemy_BP.uasset'
[2018.10.02-09.03.32:960][964]LogSlate: FSceneViewport::OnFocusLost() reason 0
[2018.10.02-09.03.33:239][975]LogSlate: Window 'TowerDefenceProto - Unreal Editor' being destroyed
[2018.10.02-09.03.33:425][976]Cmd: QUIT_EDITOR
[2018.10.02-09.03.33:642][976]LogWindowsTextInputMethodSystem: Display: IME system now deactivated.
[2018.10.02-09.03.33:654][976]LogExit: Preparing to exit.
[2018.10.02-09.03.34:444][976]LogExit: Editor shut down
[2018.10.02-09.03.34:445][976]LogExit: Transaction tracking system shut down
[2018.10.02-09.03.35:106][976]LogExit: Object subsystem successfully closed.
[2018.10.02-09.03.35:125][976]LogShaderCompilers: Display: Shaders left to compile 0
[2018.10.02-09.03.35:130][976]LogD3D11RHI: Shutdown
[2018.10.02-09.03.35:130][976]LogD3D11RHI: CleanupD3DDevice
[2018.10.02-09.03.35:135][976]LogD3D11RHI: ~FD3D11DynamicRHI
[2018.10.02-09.03.35:191][976]LogModuleManager: Shutting down and abandoning module MovieSceneCapture (620)
[2018.10.02-09.03.35:191][976]LogModuleManager: Shutting down and abandoning module Voice (618)
[2018.10.02-09.03.35:191][976]LogModuleManager: Shutting down and abandoning module HierarchicalLODUtilities (616)
[2018.10.02-09.03.35:191][976]LogModuleManager: Shutting down and abandoning module BlueprintGraph (614)
[2018.10.02-09.03.35:191][976]LogModuleManager: Shutting down and abandoning module HierarchicalLODOutliner (612)
[2018.10.02-09.03.35:191][976]LogModuleManager: Shutting down and abandoning module SceneOutliner (610)
[2018.10.02-09.03.35:191][976]LogModuleManager: Shutting down and abandoning module AddContentDialog (608)
[2018.10.02-09.03.35:191][976]LogModuleManager: Shutting down and abandoning module WidgetCarousel (607)
[2018.10.02-09.03.35:191][976]LogModuleManager: Shutting down and abandoning module EditorWidgets (604)
[2018.10.02-09.03.35:191][976]LogModuleManager: Shutting down and abandoning module CollectionManager (602)
[2018.10.02-09.03.35:192][976]LogModuleManager: Shutting down and abandoning module MeshBuilder (600)
[2018.10.02-09.03.35:192][976]LogModuleManager: Shutting down and abandoning module StatsViewer (598)
[2018.10.02-09.03.35:192][976]LogModuleManager: Shutting down and abandoning module FoliageEdit (596)
[2018.10.02-09.03.35:192][976]LogModuleManager: Shutting down and abandoning module LandscapeEditor (594)
[2018.10.02-09.03.35:193][976]LogModuleManager: Shutting down and abandoning module MeshPaintMode (592)
[2018.10.02-09.03.35:193][976]LogModuleManager: Shutting down and abandoning module SceneDepthPickerMode (590)
[2018.10.02-09.03.35:193][976]LogModuleManager: Shutting down and abandoning module ActorPickerMode (588)
[2018.10.02-09.03.35:193][976]LogModuleManager: Shutting down and abandoning module GeometryMode (586)
[2018.10.02-09.03.35:193][976]LogModuleManager: Shutting down and abandoning module TextureAlignMode (584)
[2018.10.02-09.03.35:193][976]LogModuleManager: Shutting down and abandoning module BspMode (582)
[2018.10.02-09.03.35:193][976]LogModuleManager: Shutting down and abandoning module PIEPreviewDeviceProfileSelector (580)
[2018.10.02-09.03.35:193][976]LogModuleManager: Shutting down and abandoning module SequenceRecorderSections (578)
[2018.10.02-09.03.35:193][976]LogModuleManager: Shutting down and abandoning module AutomationWorker (576)
[2018.10.02-09.03.35:193][976]LogModuleManager: Shutting down and abandoning module AudioCaptureEditor (574)
[2018.10.02-09.03.35:193][976]LogModuleManager: Shutting down and abandoning module SequenceRecorder (573)
[2018.10.02-09.03.35:193][976]LogModuleManager: Shutting down and abandoning module MatineeToLevelSequence (570)
[2018.10.02-09.03.35:193][976]LogModuleManager: Shutting down and abandoning module LevelSequenceEditor (568)
[2018.10.02-09.03.35:194][976]LogModuleManager: Shutting down and abandoning module PlacementMode (567)
[2018.10.02-09.03.35:194][976]LogModuleManager: Shutting down and abandoning module MaterialEditor (566)
[2018.10.02-09.03.35:195][976]LogModuleManager: Shutting down and abandoning module WmfMediaFactory (562)
[2018.10.02-09.03.35:195][976]LogModuleManager: Shutting down and abandoning module WmfMediaEditor (560)
[2018.10.02-09.03.35:195][976]LogModuleManager: Shutting down and abandoning module MediaPlayerEditor (558)
[2018.10.02-09.03.35:195][976]LogModuleManager: Shutting down and abandoning module OpenExrWrapper (556)
[2018.10.02-09.03.35:195][976]LogModuleManager: Shutting down and abandoning module ImgMediaFactory (554)
[2018.10.02-09.03.35:195][976]LogModuleManager: Shutting down and abandoning module ImgMediaEditor (552)
[2018.10.02-09.03.35:195][976]LogModuleManager: Shutting down and abandoning module AvfMediaFactory (550)
[2018.10.02-09.03.35:195][976]LogModuleManager: Shutting down and abandoning module AvfMediaEditor (548)
[2018.10.02-09.03.35:195][976]LogModuleManager: Shutting down and abandoning module AndroidMediaFactory (546)
[2018.10.02-09.03.35:195][976]LogModuleManager: Shutting down and abandoning module AndroidMediaEditor (544)
[2018.10.02-09.03.35:195][976]LogModuleManager: Shutting down and abandoning module MagicLeapCameraPreviewFactory (542)
[2018.10.02-09.03.35:195][976]LogModuleManager: Shutting down and abandoning module MagicLeapMediaFactory (540)
[2018.10.02-09.03.35:195][976]LogModuleManager: Shutting down and abandoning module MagicLeapMediaEditor (538)
[2018.10.02-09.03.35:195][976]LogModuleManager: Shutting down and abandoning module CharacterAI (536)
[2018.10.02-09.03.35:195][976]LogModuleManager: Shutting down and abandoning module SmartSnapping (534)
[2018.10.02-09.03.35:195][976]LogModuleManager: Shutting down and abandoning module SessionServices (532)
[2018.10.02-09.03.35:195][976]LogModuleManager: Shutting down and abandoning module ViewportSnapping (530)
[2018.10.02-09.03.35:195][976]LogModuleManager: Shutting down and abandoning module ViewportInteraction (528)
[2018.10.02-09.03.35:196][976]LogModuleManager: Shutting down and abandoning module ClothPainter (526)
[2018.10.02-09.03.35:197][976]LogModuleManager: Shutting down and abandoning module SkeletalMeshEditor (525)
[2018.10.02-09.03.35:197][976]LogModuleManager: Shutting down and abandoning module LogVisualizer (522)
[2018.10.02-09.03.35:198][976]LogModuleManager: Shutting down and abandoning module IntroTutorials (520)
[2018.10.02-09.03.35:198][976]LogModuleManager: Shutting down and abandoning module GameProjectGeneration (519)
[2018.10.02-09.03.35:199][976]LogModuleManager: Shutting down and abandoning module LuminPlatformEditor (516)
[2018.10.02-09.03.35:199][976]LogModuleManager: Shutting down and abandoning module IOSPlatformEditor (514)
[2018.10.02-09.03.35:199][976]LogModuleManager: Shutting down and abandoning module HTML5PlatformEditor (512)
[2018.10.02-09.03.35:199][976]LogModuleManager: Shutting down and abandoning module AndroidPlatformEditor (510)
[2018.10.02-09.03.35:199][976]LogModuleManager: Shutting down and abandoning module AndroidDeviceDetection (509)
[2018.10.02-09.03.35:380][976]LogModuleManager: Shutting down and abandoning module WindowsPlatformEditor (506)
[2018.10.02-09.03.35:380][976]LogModuleManager: Shutting down and abandoning module LuminRuntimeSettings (504)
[2018.10.02-09.03.35:380][976]LogModuleManager: Shutting down and abandoning module IOSRuntimeSettings (502)
[2018.10.02-09.03.35:380][976]LogModuleManager: Shutting down and abandoning module AndroidRuntimeSettings (500)
[2018.10.02-09.03.35:380][976]LogModuleManager: Shutting down and abandoning module InputBindingEditor (498)
[2018.10.02-09.03.35:380][976]LogModuleManager: Shutting down and abandoning module MergeActors (496)
[2018.10.02-09.03.35:380][976]LogModuleManager: Shutting down and abandoning module LocalizationDashboard (494)
[2018.10.02-09.03.35:382][976]LogModuleManager: Shutting down and abandoning module LocalizationService (493)
[2018.10.02-09.03.35:382][976]LogModuleManager: Shutting down and abandoning module HardwareTargeting (490)
[2018.10.02-09.03.35:382][976]LogModuleManager: Shutting down and abandoning module DeviceProfileEditor (488)
[2018.10.02-09.03.35:382][976]LogModuleManager: Shutting down and abandoning module UndoHistory (486)
[2018.10.02-09.03.35:382][976]LogModuleManager: Shutting down and abandoning module XmlParser (484)
[2018.10.02-09.03.35:382][976]LogModuleManager: Shutting down and abandoning module Blutility (482)
[2018.10.02-09.03.35:382][976]LogModuleManager: Shutting down and abandoning module ProjectSettingsViewer (480)
[2018.10.02-09.03.35:382][976]LogModuleManager: Shutting down and abandoning module ProjectTargetPlatformEditor (479)
[2018.10.02-09.03.35:382][976]LogModuleManager: Shutting down and abandoning module EditorSettingsViewer (476)
[2018.10.02-09.03.35:382][976]LogModuleManager: Shutting down and abandoning module SettingsEditor (474)
[2018.10.02-09.03.35:382][976]LogModuleManager: Shutting down and abandoning module ProjectLauncher (472)
[2018.10.02-09.03.35:383][976]LogModuleManager: Shutting down and abandoning module SessionFrontend (470)
[2018.10.02-09.03.35:383][976]LogModuleManager: Shutting down and abandoning module ProfilerClient (468)
[2018.10.02-09.03.35:383][976]LogModuleManager: Shutting down and abandoning module DeviceManager (466)
[2018.10.02-09.03.35:384][976]LogModuleManager: Shutting down and abandoning module TargetDeviceServices (465)
[2018.10.02-09.03.35:438][976]LogModuleManager: Shutting down and abandoning module AutomationController (462)
[2018.10.02-09.03.35:438][976]LogModuleManager: Shutting down and abandoning module AutomationWindow (460)
[2018.10.02-09.03.35:438][976]LogModuleManager: Shutting down and abandoning module Layers (458)
[2018.10.02-09.03.35:440][976]LogModuleManager: Shutting down and abandoning module ComponentVisualizers (456)
[2018.10.02-09.03.35:440][976]LogModuleManager: Shutting down and abandoning module DetailCustomizations (454)
[2018.10.02-09.03.35:440][976]LogModuleManager: Shutting down and abandoning module PackagesDialog (452)
[2018.10.02-09.03.35:440][976]LogModuleManager: Shutting down and abandoning module Persona (450)
[2018.10.02-09.03.35:441][976]LogModuleManager: Shutting down and abandoning module AdvancedPreviewScene (449)
[2018.10.02-09.03.35:441][976]LogModuleManager: Shutting down and abandoning module AnimGraph (447)
[2018.10.02-09.03.35:441][976]LogModuleManager: Shutting down and abandoning module Kismet (444)
[2018.10.02-09.03.35:445][976]LogModuleManager: Shutting down and abandoning module GraphEditor (442)
[2018.10.02-09.03.35:445][976]LogModuleManager: Shutting down and abandoning module ClassViewer (440)
[2018.10.02-09.03.35:445][976]LogModuleManager: Shutting down and abandoning module Toolbox (438)
[2018.10.02-09.03.35:445][976]LogModuleManager: Shutting down and abandoning module ModuleUI (436)
[2018.10.02-09.03.35:446][976]LogModuleManager: Shutting down and abandoning module MovieSceneTools (434)
[2018.10.02-09.03.35:446][976]LogModuleManager: Shutting down and abandoning module OutputLog (432)
[2018.10.02-09.03.35:446][976]LogModuleManager: Shutting down and abandoning module GammaUI (430)
[2018.10.02-09.03.35:446][976]LogModuleManager: Shutting down and abandoning module Documentation (428)
[2018.10.02-09.03.35:446][976]LogModuleManager: Shutting down and abandoning module MovieSceneTracks (426)
[2018.10.02-09.03.35:447][976]LogModuleManager: Shutting down and abandoning module MovieScene (424)
[2018.10.02-09.03.35:447][976]LogModuleManager: Shutting down and abandoning module StreamingPauseRendering (422)
[2018.10.02-09.03.35:447][976]LogModuleManager: Shutting down and abandoning module LauncherPlatform (420)
[2018.10.02-09.03.35:447][976]LogModuleManager: Shutting down and abandoning module AnalyticsET (418)
[2018.10.02-09.03.35:447][976]LogModuleManager: Shutting down and abandoning module PortalServices (416)
[2018.10.02-09.03.35:447][976]LogModuleManager: Shutting down and abandoning module PortalRpc (414)
[2018.10.02-09.03.35:447][976]LogModuleManager: Shutting down and abandoning module MessagingRpc (412)
[2018.10.02-09.03.35:447][976]LogModuleManager: Shutting down and abandoning module AIModule (410)
[2018.10.02-09.03.35:447][976]LogModuleManager: Shutting down and abandoning module GameplayDebugger (409)
[2018.10.02-09.03.35:447][976]LogModuleManager: Shutting down and abandoning module AITestSuite (407)
[2018.10.02-09.03.35:447][976]LogModuleManager: Shutting down and abandoning module NavigationSystem (405)
[2018.10.02-09.03.35:447][976]LogModuleManager: Shutting down and abandoning module DesktopPlatform (402)
[2018.10.02-09.03.35:447][976]LogModuleManager: Shutting down and abandoning module ProfilerService (400)
[2018.10.02-09.03.35:578][976]LogModuleManager: Shutting down and abandoning module TaskGraph (398)
[2018.10.02-09.03.35:578][976]LogModuleManager: Shutting down and abandoning module SteamVRController (396)
[2018.10.02-09.03.35:578][976]LogModuleManager: Shutting down and abandoning module ProceduralMeshComponentEditor (394)
[2018.10.02-09.03.35:578][976]LogModuleManager: Shutting down and abandoning module ProceduralMeshComponent (392)
[2018.10.02-09.03.35:578][976]LogModuleManager: Shutting down and abandoning module OculusInput (390)
[2018.10.02-09.03.35:578][976]LogModuleManager: Shutting down and abandoning module MobilePatchingUtils (388)
[2018.10.02-09.03.35:578][976]LogModuleManager: Shutting down and abandoning module EditableMesh (386)
[2018.10.02-09.03.35:578][976]LogModuleManager: Shutting down and abandoning module CustomMeshComponent (384)
[2018.10.02-09.03.35:578][976]LogModuleManager: Shutting down and abandoning module CableComponent (382)
[2018.10.02-09.03.35:578][976]LogModuleManager: Shutting down and abandoning module AudioCapture (380)
[2018.10.02-09.03.35:578][976]LogModuleManager: Shutting down and abandoning module ArchVisCharacter (378)
[2018.10.02-09.03.35:578][976]LogModuleManager: Shutting down and abandoning module AndroidPermission (376)
[2018.10.02-09.03.35:578][976]LogModuleManager: Shutting down and abandoning module NUTUnrealEngine4 (374)
[2018.10.02-09.03.35:578][976]LogModuleManager: Shutting down and abandoning module NetcodeUnitTest (372)
[2018.10.02-09.03.35:579][976]LogModuleManager: Shutting down and abandoning module MediaCompositingEditor (370)
[2018.10.02-09.03.35:579][976]LogModuleManager: Shutting down and abandoning module MediaCompositing (368)
[2018.10.02-09.03.35:579][976]LogModuleManager: Shutting down and abandoning module LinearTimecode (366)
[2018.10.02-09.03.35:579][976]LogModuleManager: Shutting down and abandoning module ImgMedia (364)
[2018.10.02-09.03.35:582][976]LogModuleManager: Shutting down and abandoning module HTML5Networking (362)
[2018.10.02-09.03.35:582][976]LogModuleManager: Shutting down and abandoning module GeometryCacheTracks (360)
[2018.10.02-09.03.35:582][976]LogModuleManager: Shutting down and abandoning module GeometryCacheSequencer (358)
[2018.10.02-09.03.35:582][976]LogModuleManager: Shutting down and abandoning module BackChannel (356)
[2018.10.02-09.03.35:582][976]LogModuleManager: Shutting down and abandoning module AppleVision (354)
[2018.10.02-09.03.35:582][976]LogModuleManager: Shutting down and abandoning module AppleImageUtils (352)
[2018.10.02-09.03.35:583][976]LogModuleManager: Shutting down and abandoning module AlembicImporter (350)
[2018.10.02-09.03.35:583][976]LogModuleManager: Shutting down and abandoning module AlembicLibrary (349)
[2018.10.02-09.03.35:583][976]LogModuleManager: Shutting down and abandoning module GeometryCache (348)
[2018.10.02-09.03.35:583][976]LogModuleManager: Shutting down and abandoning module GeometryCacheEd (347)
[2018.10.02-09.03.35:583][976]LogModuleManager: Shutting down and abandoning module DatasmithContentEditor (342)
[2018.10.02-09.03.35:583][976]LogModuleManager: Shutting down and abandoning module DatasmithContent (340)
[2018.10.02-09.03.35:583][976]LogModuleManager: Shutting down and abandoning module SpeedTreeImporter (338)
[2018.10.02-09.03.35:583][976]LogModuleManager: Shutting down and abandoning module PluginBrowser (336)
[2018.10.02-09.03.35:584][976]LogModuleManager: Shutting down and abandoning module MobileLauncherProfileWizard (334)
[2018.10.02-09.03.35:585][976]LogModuleManager: Shutting down and abandoning module PolygonModeling (332)
[2018.10.02-09.03.35:585][976]LogModuleManager: Shutting down and abandoning module MeshEditor (330)
[2018.10.02-09.03.35:585][976]LogModuleManager: Shutting down and abandoning module CryptoKeysOpenSSL (328)
[2018.10.02-09.03.35:585][976]LogModuleManager: Shutting down and abandoning module CryptoKeys (326)
[2018.10.02-09.03.35:585][976]LogModuleManager: Shutting down and abandoning module VisualStudioSourceCodeAccess (324)
[2018.10.02-09.03.35:585][976]LogModuleManager: Shutting down and abandoning module VisualStudioCodeSourceCodeAccess (322)
[2018.10.02-09.03.35:585][976]LogModuleManager: Shutting down and abandoning module UObjectPlugin (320)
[2018.10.02-09.03.35:585][976]LogModuleManager: Shutting down and abandoning module SubversionSourceControl (318)
[2018.10.02-09.03.35:585][976]LogModuleManager: Shutting down and abandoning module PerforceSourceControl (316)
[2018.10.02-09.03.35:585][976]LogModuleManager: Shutting down and abandoning module GitSourceControl (314)
[2018.10.02-09.03.35:586][976]LogModuleManager: Shutting down and abandoning module SourceControl (313)
[2018.10.02-09.03.35:586][976]LogModuleManager: Shutting down and abandoning module CLionSourceCodeAccess (310)
[2018.10.02-09.03.35:586][976]LogModuleManager: Shutting down and abandoning module LightPropagationVolumeEditor (308)
[2018.10.02-09.03.35:586][976]LogModuleManager: Shutting down and abandoning module PaperTiledImporter (306)
[2018.10.02-09.03.35:586][976]LogModuleManager: Shutting down and abandoning module PaperSpriteSheetImporter (304)
[2018.10.02-09.03.35:586][976]LogModuleManager: Shutting down and abandoning module Paper2DEditor (302)
[2018.10.02-09.03.35:586][976]LogModuleManager: Shutting down and abandoning module MeshPaint (301)
[2018.10.02-09.03.35:586][976]LogModuleManager: Shutting down and abandoning module RuntimePhysXCooking (298)
[2018.10.02-09.03.35:586][976]LogModuleManager: Shutting down and abandoning module PhysXVehiclesEditor (296)
[2018.10.02-09.03.35:586][976]LogModuleManager: Shutting down and abandoning module PhysXVehicles (294)
[2018.10.02-09.03.35:586][976]LogModuleManager: Shutting down and abandoning module OculusEditor (292)
[2018.10.02-09.03.35:586][976]LogModuleManager: Shutting down and abandoning module LocationServicesBPLibrary (290)
[2018.10.02-09.03.35:586][976]LogModuleManager: Shutting down and abandoning module ImmediatePhysicsEditor (288)
[2018.10.02-09.03.35:586][976]LogModuleManager: Shutting down and abandoning module ImmediatePhysics (286)
[2018.10.02-09.03.35:587][976]LogModuleManager: Shutting down and abandoning module ActorSequence (284)
[2018.10.02-09.03.35:587][976]LogModuleManager: Shutting down and abandoning module UdpMessaging (282)
[2018.10.02-09.03.35:687][976]LogModuleManager: Shutting down and abandoning module TcpMessaging (280)
[2018.10.02-09.03.35:788][976]LogModuleManager: Shutting down and abandoning module MagicLeapAudio (278)
[2018.10.02-09.03.35:788][976]LogModuleManager: Shutting down and abandoning module GameplayTagsEditor (276)
[2018.10.02-09.03.35:789][976]LogModuleManager: Shutting down and abandoning module FacialAnimationEditor (274)
[2018.10.02-09.03.35:789][976]LogModuleManager: Shutting down and abandoning module FacialAnimation (272)
[2018.10.02-09.03.35:789][976]LogModuleManager: Shutting down and abandoning module DataValidation (270)
[2018.10.02-09.03.35:789][976]LogModuleManager: Shutting down and abandoning module AssetManagerEditor (268)
[2018.10.02-09.03.35:789][976]LogModuleManager: Shutting down and abandoning module LevelEditor (267)
[2018.10.02-09.03.35:790][976]LogModuleManager: Shutting down and abandoning module PixelInspectorModule (266)
[2018.10.02-09.03.35:790][976]LogModuleManager: Shutting down and abandoning module CommonMenuExtensions (264)
[2018.10.02-09.03.35:790][976]LogModuleManager: Shutting down and abandoning module MainFrame (262)
[2018.10.02-09.03.35:790][976]LogModuleManager: Shutting down and abandoning module HotReload (261)
[2018.10.02-09.03.35:791][976]LogModuleManager: Shutting down and abandoning module ContentBrowser (257)
[2018.10.02-09.03.35:791][976]LogModuleManager: Shutting down and abandoning module TreeMap (255)
[2018.10.02-09.03.35:791][976]LogModuleManager: Shutting down and abandoning module LightPropagationVolumeRuntime (252)
[2018.10.02-09.03.35:791][976]LogModuleManager: Shutting down and abandoning module AISupportModule (250)
[2018.10.02-09.03.35:791][976]LogModuleManager: Shutting down and abandoning module Paper2D (248)
[2018.10.02-09.03.35:791][976]LogModuleManager: Shutting down and abandoning module WindowsMoviePlayer (246)
[2018.10.02-09.03.35:791][976]LogModuleManager: Shutting down and abandoning module WmfMedia (244)
[2018.10.02-09.03.35:794][976]LogModuleManager: Shutting down and abandoning module Media (243)
[2018.10.02-09.03.35:801][976]LogModuleManager: Shutting down and abandoning module PacketHandler (240)
[2018.10.02-09.03.35:801][976]LogModuleManager: Shutting down and abandoning module ClothingSystemEditor (238)
[2018.10.02-09.03.35:801][976]LogModuleManager: Shutting down and abandoning module ClothingSystemRuntime (236)
[2018.10.02-09.03.35:802][976]LogModuleManager: Shutting down and abandoning module MediaAssets (234)
[2018.10.02-09.03.35:802][976]LogModuleManager: Shutting down and abandoning module Overlay (232)
[2018.10.02-09.03.35:802][976]LogModuleManager: Shutting down and abandoning module OverlayEditor (231)
[2018.10.02-09.03.35:802][976]LogModuleManager: Shutting down and abandoning module VREditor (228)
[2018.10.02-09.03.35:803][976]LogModuleManager: Shutting down and abandoning module StringTableEditor (226)
[2018.10.02-09.03.35:804][976]LogModuleManager: Shutting down and abandoning module GameplayTasksEditor (224)
[2018.10.02-09.03.35:804][976]LogModuleManager: Shutting down and abandoning module BehaviorTreeEditor (222)
[2018.10.02-09.03.35:804][976]LogModuleManager: Shutting down and abandoning module FunctionalTesting (220)
[2018.10.02-09.03.35:804][976]LogModuleManager: Shutting down and abandoning module CollisionAnalyzer (218)
[2018.10.02-09.03.35:804][976]LogModuleManager: Shutting down and abandoning module WorkspaceMenuStructure (217)
[2018.10.02-09.03.35:804][976]LogModuleManager: Shutting down and abandoning module UMG (214)
[2018.10.02-09.03.35:805][976]LogModuleManager: Shutting down and abandoning module UMGEditor (213)
[2018.10.02-09.03.35:808][976]LogModuleManager: Shutting down and abandoning module Sequencer (212)
[2018.10.02-09.03.35:809][976]LogModuleManager: Shutting down and abandoning module MessageLog (209)
[2018.10.02-09.03.35:809][976]LogModuleManager: Shutting down and abandoning module SlateReflector (204)
[2018.10.02-09.03.35:811][976]LogModuleManager: Shutting down and abandoning module Slate (202)
[2018.10.02-09.03.35:811][976]LogModuleManager: Shutting down and abandoning module EditorStyle (200)
[2018.10.02-09.03.35:812][976]LogModuleManager: Shutting down and abandoning module MRMesh (198)
[2018.10.02-09.03.35:812][976]LogModuleManager: Shutting down and abandoning module SourceCodeAccess (196)
[2018.10.02-09.03.35:812][976]LogModuleManager: Shutting down and abandoning module HeadMountedDisplay (194)
[2018.10.02-09.03.35:812][976]LogModuleManager: Shutting down and abandoning module XAudio2 (192)
[2018.10.02-09.03.35:812][976]LogModuleManager: Shutting down and abandoning module Networking (190)
[2018.10.02-09.03.35:812][976]LogModuleManager: Shutting down and abandoning module Core (188)
[2018.10.02-09.03.35:812][976]LogModuleManager: Shutting down and abandoning module LevelSequence (186)
[2018.10.02-09.03.35:812][976]LogModuleManager: Shutting down and abandoning module KismetCompiler (184)
[2018.10.02-09.03.35:812][976]LogModuleManager: Shutting down and abandoning module MeshUtilities (182)
[2018.10.02-09.03.35:813][976]LogModuleManager: Shutting down and abandoning module MeshMergeUtilities (181)
[2018.10.02-09.03.35:813][976]LogModuleManager: Shutting down and abandoning module MeshReductionInterface (180)
[2018.10.02-09.03.35:813][976]LogModuleManager: Shutting down and abandoning module SimplygonSwarm (179)
[2018.10.02-09.03.35:814][976]LogModuleManager: Shutting down and abandoning module ProxyLODMeshReduction (177)
[2018.10.02-09.03.35:814][976]LogModuleManager: Shutting down and abandoning module SimplygonMeshReduction (175)
[2018.10.02-09.03.35:814][976]LogModuleManager: Shutting down and abandoning module QuadricMeshReduction (173)
[2018.10.02-09.03.35:816][976]LogModuleManager: Shutting down and abandoning module MaterialBaking (169)
[2018.10.02-09.03.35:817][976]LogModuleManager: Shutting down and abandoning module DirectoryWatcher (165)
[2018.10.02-09.03.35:817][976]LogModuleManager: Shutting down and abandoning module DerivedDataCache (162)
[2018.10.02-09.03.35:822][976]LogDerivedDataCache: Shutdown
[2018.10.02-09.03.35:822][976]LogModuleManager: Shutting down and abandoning module XGEController (160)
[2018.10.02-09.03.35:822][976]LogXGEController: Cleaning working directory: C:/Users/fredd_019stem/AppData/Local/Temp/UnrealXGEWorkingDir/
[2018.10.02-09.03.35:822][976]LogModuleManager: Shutting down and abandoning module TargetPlatform (158)
[2018.10.02-09.03.35:822][976]LogModuleManager: Shutting down and abandoning module VulkanShaderFormat (157)
[2018.10.02-09.03.35:822][976]LogModuleManager: Shutting down and abandoning module ShaderFormatVectorVM (155)
[2018.10.02-09.03.35:822][976]LogModuleManager: Shutting down and abandoning module ShaderFormatOpenGL (153)
[2018.10.02-09.03.35:822][976]LogModuleManager: Shutting down and abandoning module ShaderFormatD3D (151)
[2018.10.02-09.03.35:822][976]LogModuleManager: Shutting down and abandoning module MetalShaderFormat (149)
[2018.10.02-09.03.35:823][976]LogModuleManager: Shutting down and abandoning module TextureFormatUncompressed (147)
[2018.10.02-09.03.35:823][976]LogModuleManager: Shutting down and abandoning module TextureFormatPVR (145)
[2018.10.02-09.03.35:823][976]LogModuleManager: Shutting down and abandoning module TextureFormatDXT (143)
[2018.10.02-09.03.35:823][976]LogModuleManager: Shutting down and abandoning module TextureFormatIntelISPCTexComp (141)
[2018.10.02-09.03.35:823][976]LogModuleManager: Shutting down and abandoning module TextureFormatASTC (139)
[2018.10.02-09.03.35:823][976]LogModuleManager: Shutting down and abandoning module ImageWrapper (138)
[2018.10.02-09.03.35:823][976]LogModuleManager: Shutting down and abandoning module TextureFormatAndroid (135)
[2018.10.02-09.03.35:823][976]LogModuleManager: Shutting down and abandoning module AudioFormatOpus (133)
[2018.10.02-09.03.35:823][976]LogModuleManager: Shutting down and abandoning module AudioFormatOgg (131)
[2018.10.02-09.03.35:823][976]LogModuleManager: Shutting down and abandoning module AudioFormatADPCM (129)
[2018.10.02-09.03.35:823][976]LogModuleManager: Shutting down and abandoning module LuminTargetPlatform (127)
[2018.10.02-09.03.35:823][976]LogModuleManager: Shutting down and abandoning module LinuxTargetPlatform (125)
[2018.10.02-09.03.35:823][976]LogModuleManager: Shutting down and abandoning module LinuxServerTargetPlatform (123)
[2018.10.02-09.03.35:823][976]LogModuleManager: Shutting down and abandoning module LinuxNoEditorTargetPlatform (121)
[2018.10.02-09.03.35:823][976]LogModuleManager: Shutting down and abandoning module LinuxClientTargetPlatform (119)
[2018.10.02-09.03.35:823][976]LogModuleManager: Shutting down and abandoning module TVOSTargetPlatform (117)
[2018.10.02-09.03.35:824][976]LogModuleManager: Shutting down and abandoning module Messaging (115)
[2018.10.02-09.03.35:824][976]LogModuleManager: Shutting down and abandoning module IOSTargetPlatform (113)
[2018.10.02-09.03.35:824][976]LogModuleManager: Shutting down and abandoning module HTML5TargetPlatform (111)
[2018.10.02-09.03.35:824][976]LogModuleManager: Shutting down and abandoning module AndroidTargetPlatform (109)
[2018.10.02-09.03.35:829][976]LogModuleManager: Shutting down and abandoning module WindowsTargetPlatform (107)
[2018.10.02-09.03.35:829][976]LogModuleManager: Shutting down and abandoning module WindowsServerTargetPlatform (105)
[2018.10.02-09.03.35:829][976]LogModuleManager: Shutting down and abandoning module WindowsNoEditorTargetPlatform (103)
[2018.10.02-09.03.35:829][976]LogModuleManager: Shutting down and abandoning module WindowsClientTargetPlatform (101)
[2018.10.02-09.03.35:829][976]LogModuleManager: Shutting down and abandoning module MacTargetPlatform (99)
[2018.10.02-09.03.35:829][976]LogModuleManager: Shutting down and abandoning module MacServerTargetPlatform (97)
[2018.10.02-09.03.35:829][976]LogModuleManager: Shutting down and abandoning module MacNoEditorTargetPlatform (95)
[2018.10.02-09.03.35:829][976]LogModuleManager: Shutting down and abandoning module MacClientTargetPlatform (93)
[2018.10.02-09.03.35:829][976]LogModuleManager: Shutting down and abandoning module AllDesktopTargetPlatform (91)
[2018.10.02-09.03.35:829][976]LogModuleManager: Shutting down and abandoning module InputCore (88)
[2018.10.02-09.03.35:829][976]LogModuleManager: Shutting down and abandoning module Settings (86)
[2018.10.02-09.03.35:829][976]LogModuleManager: Shutting down and abandoning module PhysXCooking (84)
[2018.10.02-09.03.35:829][976]LogModuleManager: Shutting down and abandoning module SteamVR (82)
[2018.10.02-09.03.35:829][976]LogModuleManager: Shutting down and abandoning module OculusHMD (80)
[2018.10.02-09.03.35:829][976]LogModuleManager: Shutting down and abandoning module ExampleDeviceProfileSelector (78)
[2018.10.02-09.03.35:829][976]LogModuleManager: Shutting down and abandoning module LauncherChunkInstaller (76)
[2018.10.02-09.03.35:829][976]LogModuleManager: Shutting down and abandoning module OnlineBlueprintSupport (74)
[2018.10.02-09.03.35:829][976]LogModuleManager: Shutting down and abandoning module OnlineSubsystem (70)
[2018.10.02-09.03.35:830][976]LogModuleManager: Shutting down and abandoning module XMPP (65)
[2018.10.02-09.03.35:831][976]LogModuleManager: Shutting down and abandoning module WebSockets (64)
[2018.10.02-09.03.35:841][976]LogModuleManager: Shutting down and abandoning module HTTP (61)
[2018.10.02-09.03.35:841][976]LogHttp: Display: Http module shutting down, but needs to wait on 1 outstanding Http requests:
[2018.10.02-09.03.35:841][976]LogHttp: Display: 	verb=[POST] url=[https://datarouter.ol.epicgames.com/datarouter/api/v1/public/data?SessionID=%7B3B1269B6-4341-A74D-68F5-2DACB27A8F9D%7D&AppID=UEEditor.Rocket.Release&AppVersion=4.20.3-4369336%2B%2B%2BUE4%2BRelease-4.20&UserID=daef051445ca3fea5b1135948c359ffe%7Cdf915e4ddc794014a47a00e077c5500a%7C2826e925-4f1b-4c23-a686-77ce60c1080a&AppEnvironment=datacollector-binary&UploadType=eteventstream] status=Processing
[2018.10.02-09.03.35:848][976]LogModuleManager: Shutting down and abandoning module SSL (60)
[2018.10.02-09.03.35:849][976]LogModuleManager: Shutting down and abandoning module MagicLeapEmulator (56)
[2018.10.02-09.03.35:849][976]LogModuleManager: Shutting down and abandoning module MagicLeapPrivileges (54)
[2018.10.02-09.03.35:849][976]LogModuleManager: Shutting down and abandoning module MagicLeapIdentity (52)
[2018.10.02-09.03.35:849][976]LogModuleManager: Shutting down and abandoning module MagicLeapHelperVulkan (50)
[2018.10.02-09.03.35:849][976]LogModuleManager: Shutting down and abandoning module MagicLeapHelperOpenGL (48)
[2018.10.02-09.03.35:849][976]LogModuleManager: Shutting down and abandoning module MagicLeapSecureStorage (46)
[2018.10.02-09.03.35:849][976]LogModuleManager: Shutting down and abandoning module MagicLeapGestures (44)
[2018.10.02-09.03.35:849][976]LogModuleManager: Shutting down and abandoning module MagicLeapEyeTracker (42)
[2018.10.02-09.03.35:849][976]LogModuleManager: Shutting down and abandoning module MagicLeapController (40)
[2018.10.02-09.03.35:849][976]LogSlate: Slate User Destroyed.  User Index 0, Is Virtual User: 0
[2018.10.02-09.03.35:849][976]LogModuleManager: Shutting down and abandoning module MagicLeap (38)
[2018.10.02-09.03.35:849][976]LogModuleManager: Shutting down and abandoning module AnimationModifiers (36)
[2018.10.02-09.03.35:850][976]LogModuleManager: Shutting down and abandoning module PropertyEditor (35)
[2018.10.02-09.03.35:850][976]LogModuleManager: Shutting down and abandoning module AudioEditor (32)
[2018.10.02-09.03.35:850][976]LogModuleManager: Shutting down and abandoning module TextureCompressor (30)
[2018.10.02-09.03.35:851][976]LogModuleManager: Shutting down and abandoning module ShaderCore (28)
[2018.10.02-09.03.35:851][976]LogModuleManager: Shutting down and abandoning module Landscape (26)
[2018.10.02-09.03.35:851][976]LogModuleManager: Shutting down and abandoning module SlateRHIRenderer (24)
[2018.10.02-09.03.35:852][976]LogModuleManager: Shutting down and abandoning module OpenGLDrv (22)
[2018.10.02-09.03.35:852][976]LogModuleManager: Shutting down and abandoning module D3D11RHI (20)
[2018.10.02-09.03.35:852][976]LogModuleManager: Shutting down and abandoning module AnimGraphRuntime (18)
[2018.10.02-09.03.35:852][976]LogModuleManager: Shutting down and abandoning module Renderer (16)
[2018.10.02-09.03.35:852][976]LogModuleManager: Shutting down and abandoning module Engine (14)
[2018.10.02-09.03.35:852][976]LogModuleManager: Shutting down and abandoning module CoreUObject (12)
[2018.10.02-09.03.35:852][976]LogModuleManager: Shutting down and abandoning module NetworkFile (10)
[2018.10.02-09.03.35:852][976]LogModuleManager: Shutting down and abandoning module CookedIterativeFile (8)
[2018.10.02-09.03.35:852][976]LogModuleManager: Shutting down and abandoning module StreamingFile (6)
[2018.10.02-09.03.35:852][976]LogModuleManager: Shutting down and abandoning module SandboxFile (4)
[2018.10.02-09.03.35:852][976]LogModuleManager: Shutting down and abandoning module PakFile (2)
[2018.10.02-09.03.35:857][976]LogExit: Exiting.
[2018.10.02-09.03.35:884][976]Log file closed, 10/02/18 10:03:35
